{
    "name": "IGS",
    "mines": 10
}
 ....   ..........  .........
......  ..........  .........
......  ..........  .........
......  ...         ...
......  ... ......  .........
......  ... ......  .........
......  ... ......  .........
......  ...    ...        ...
......  ..........  .........
......  ..........  .........
 ....   ..........  .........
