{
    "name": "Lines",
    "mines": 10
}
................................
        .                      .
................................
.                      .
................................
        .                      .
................................
.                      .
................................
